lambdasinaction/chap4/StreamVsCollection.class
lambdasinaction/chap4/StreamBasic$1.class
lambdasinaction/chap4/Dish$Type.class
lambdasinaction/chap4/Dish.class
lambdasinaction/chap4/StreamBasic.class
