/home/absaxena/database/stream/src/main/java/lambdasinaction/chap4/StreamVsCollection.java
/home/absaxena/database/stream/src/main/java/lambdasinaction/chap4/Dish.java
/home/absaxena/database/stream/src/main/java/lambdasinaction/chap4/StreamBasic.java
